%YAML 1.1
%TAG !u! tag:unity3d.com,2011:
--- !u!1045 &1
EditorBuildSettings:
  m_ObjectHideFlags: 0
  serializedVersion: 2
  m_Scenes: []
  m_configObjects:
    Unity.XR.WindowsMR.Settings: {fileID: 11400000, guid: 73a48c08d766b5a4687926bb1ba7a577,
      type: 2}
    com.unity.xr.management.loader_settings: {fileID: 11400000, guid: c4cb3ed9b9b5ddb478ee1a34e5b4e1c8,
      type: 2}
